/home/fofo/0Repos/aoa-assignment-2/netbeans/assignment_2/src/main/java/com/chris/assignment_2/utilities/ExperimentHelper.java
/home/fofo/0Repos/aoa-assignment-2/netbeans/assignment_2/src/main/java/com/chris/assignment_2/TreeComponents/Tree.java
/home/fofo/0Repos/aoa-assignment-2/netbeans/assignment_2/src/main/java/Experiments/Exp1_2.java
/home/fofo/0Repos/aoa-assignment-2/netbeans/assignment_2/src/main/java/com/chris/assignment_2/TreeComponents/Archive/RBTree.java
/home/fofo/0Repos/aoa-assignment-2/netbeans/assignment_2/src/main/java/com/chris/assignment_2/TreeComponents/Archive/Nil.java
/home/fofo/0Repos/aoa-assignment-2/netbeans/assignment_2/src/main/java/com/chris/assignment_2/utilities/PrintHelper.java
/home/fofo/0Repos/aoa-assignment-2/netbeans/assignment_2/src/main/java/Experiments/Exp1_1.java
/home/fofo/0Repos/aoa-assignment-2/netbeans/assignment_2/src/main/java/com/chris/assignment_2/RB_BST.java
/home/fofo/0Repos/aoa-assignment-2/netbeans/assignment_2/src/main/java/com/chris/assignment_2/TreeComponents/Node.java
/home/fofo/0Repos/aoa-assignment-2/netbeans/assignment_2/src/main/java/com/chris/assignment_2/OS.java
/home/fofo/0Repos/aoa-assignment-2/netbeans/assignment_2/src/main/java/com/chris/assignment_2/BST.java
/home/fofo/0Repos/aoa-assignment-2/netbeans/assignment_2/src/main/java/com/chris/assignment_2/TreeComponents/Archive/RBNode.java
