Type,ArraySize,Elapse_Time_Ave,Elapse_Time_Max,Corrected_Elapse_Time_Max
RB-Insert,10,1547,7734,7734
RB-Insert,100,1580,9278,7890
RB-Insert,500,1694,11135,5372
RB-Insert,1000,2108,4673,4306
RB-Insert,5000,98793,9515158,7042694
RB-Insert,10000,3609,6375,6203
RB-Insert,50000,4166,8531,6439
RB-Insert,100000,8581,444837,308963
RB-Insert,400000,4636,23825,22047
RB-Insert,600000,5080,60101,31544
RB-Insert,800000,6626,170044,71333
RB-Insert,1000000,4629,7542,6952
